{
  "Version": "0x00030001",
  "BlockSize": "0x00008000",
  "PageSize": "0x00000800",
  "PartitionSize": "0x01000000",
  "BootDev": [
    {
      "DevType": "spi",
      "ReadCommandTypeFast": "0x00000000",
      "ClockDivider": "0x00000003",
      "ClockSource": "PllPOut0"
    },
    {
      "DevType": "spi",
      "ReadCommandTypeFast": "0x00000000",
      "ClockDivider": "0x00000003",
      "ClockSource": "PllPOut0"
    },
    {
      "DevType": "spi",
      "ReadCommandTypeFast": "0x00000000",
      "ClockDivider": "0x00000003",
      "ClockSource": "PllPOut0"
    },
    {
      "DevType": "spi",
      "ReadCommandTypeFast": "0x00000000",
      "ClockDivider": "0x00000003",
      "ClockSource": "PllPOut0"
    }
  ],
  "SDRAM": [
  {
      "MemoryType": "ddr3",
      "Timings": [
        "0x00000008", "0x00000000", "0x0000000c", "0x000002ee", 
        "0x00000000", "0x0000012c", "0x00000002", "0x00000000", 
        "0x00000000", "0x001fffff", "0xa0f10000", "0x00000064", 
        "0x00000080", "0x00000001", "0x00000000", "0x00000000", 
        "0x00000011", "0x00000060", "0x0000000c", "0x00000004", 
        "0x00000003", "0x00000008", "0x00000002", "0x0000000a", 
        "0x00000004", "0x00000004", "0x00000002", "0x00000001", 
        "0x00000000", "0x00000004", "0x00000006", "0x00000004", 
        "0x0000000a", "0x0000000c", "0x00000000", "0x00000000", 
        "0x00000b2d", "0x00000000", "0x000002cb", "0x00000001", 
        "0x00000008", "0x00000001", "0x00000000", "0x00000007", 
        "0x0000000f", "0x00000066", "0x00000200", "0x00000004", 
        "0x0000000c", "0x00000000", "0x00000004", "0x00000005", 
        "0x00000b6d", "0x00000000", "0x00007088", "0x00000004", 
        "0xe8000000", "0xff00ff89", "0x80000521", "0x80100002", 
        "0x00000000", "0x00000000", "0x00000000", "0x00000000", 
        "0x00000000", "0x00000000", "0x00000000", "0x00000000", 
        "0x00000000", "0x00000000", "0x00000000", "0x00000000", 
        "0x015f000c", "0x23c00000", "0x000c0099", "0x01000400", 
        "0x10004408", "0x06000404", "0x8000174b", "0x00000001", 
        "0x00200084", "0x00008000", "0x00000002", "0x0004032c", 
        "0x00044000", "0x00044000", "0x00044000", "0x00044000", 
        "0x00044000", "0x00044000", "0x00044000", "0x00044000", 
        "0x00000000", "0x00000000", "0x00000000", "0x00000000", 
        "0x00000000", "0x00000000", "0x00000000", "0x00000000", 
        "0x00000000", "0x00000000", "0x00000000", "0x00000000", 
        "0x00000000", "0x00000000", "0x00000000", "0x00000000", 
        "0x00058000", "0x00058000", "0x00058000", "0x00058000", 
        "0x00000002", "0x00000802", "0x00000000", "0x00000000", 
        "0x00020000", "0x00000040", "0x80000000", "0x00000000", 
        "0x80000011", "0x00000000", "0x00000002", "0x00000001", 
        "0x00000001", "0x000a00ab", "0x00000011", "0x00000001", 
        "0x00000001", "0x00000000", "0x80200000", "0x80300000", 
        "0x80000521", "0x80100002", "0x80000521", "0x80200000", 
        "0x80300000", "0x80100002", "0x00000000", "0x00000000", 
        "0x00000000", "0x00000000", "0x00000000", "0x00000002", 
        "0x00000000", "0x00000000", "0x00000003", "0x00000002", 
        "0x00000003", "0x00000002", "0x80800000", "0x00000000", 
        "0x00000000", "0x000002a0", "0x770c0000", "0x770c1414", 
        "0x0800013d", "0x08000021", "0x770c2990", "0x00000000", 
        "0x77fff884", "0x01f1f508", "0x05057404", "0x54000007", 
        "0x080001e8", "0x00000000", "0x00090303", "0x00090303", 
        "0x00000800", "0x0000000b", "0xc0000044", "0x00000001", 
        "0x00000002", "0x00000009", "0x00000005", "0x00000005", 
        "0x00000001", "0x00000002", "0x00000008", "0x00000002", 
        "0x00000002", "0x00000003", "0x00000006", "0x06030202", 
        "0x000d0709", "0x7086110a", "0x78000000", "0x001f0000", 
        "0x00000080", "0xff00ff00", "0x00000000"
      ]
  },
  {
      "MemoryType": "ddr3",
      "Timings": [
        "0x00000008", "0x00000000", "0x0000000c", "0x0000029b", 
        "0x00000000", "0x0000012c", "0x00000000", "0x00000000", 
        "0x00000000", "0x001fffff", "0xa0f10000", "0x00000064", 
        "0x00000080", "0x00000001", "0x00000000", "0x00000000", 
        "0x00000020", "0x000000c7", "0x00000017", "0x00000007", 
        "0x00000005", "0x0000000c", "0x00000003", "0x00000011", 
        "0x00000007", "0x00000007", "0x00000002", "0x00000001", 
        "0x00000000", "0x00000007", "0x0000000b", "0x00000009", 
        "0x0000000a", "0x00000011", "0x00000000", "0x00000000", 
        "0x00001412", "0x00000000", "0x00000504", "0x00000002", 
        "0x00000002", "0x00000001", "0x00000000", "0x0000000c", 
        "0x00000016", "0x000000cf", "0x00000200", "0x00000005", 
        "0x00000015", "0x00000000", "0x00000006", "0x00000007", 
        "0x00001453", "0x00000000", "0x00007088", "0x00000004", 
        "0xe8000000", "0xff00ff89", "0x80001b71", "0x80100002", 
        "0x00000000", "0x00000000", "0x00000000", "0x00000000", 
        "0x00000000", "0x00000000", "0x00000000", "0x00000000", 
        "0x00000000", "0x00000000", "0x00000000", "0x00000000", 
        "0x0138000c", "0x03c00000", "0x000c0099", "0x01000400", 
        "0x10004408", "0x06000404", "0x800028a5", "0x00000001", 
        "0x000b0004", "0x00008000", "0x00000002", "0x00040000", 
        "0x00014000", "0x00014000", "0x00014000", "0x00014000", 
        "0x00000010", "0x00000010", "0x00000010", "0x00000010", 
        "0x0000c000", "0x0000c000", "0x0000c000", "0x0000c000", 
        "0x00000008", "0x00000008", "0x00000008", "0x00000008", 
        "0x00000002", "0x00000002", "0x00000002", "0x00000002", 
        "0x00000000", "0x00000000", "0x00000000", "0x00000000", 
        "0x00028000", "0x00028000", "0x00028000", "0x00028000", 
        "0x00000002", "0x00000802", "0x00000000", "0x00000000", 
        "0x00000000", "0x00000040", "0x80000000", "0x00000000", 
        "0x80000011", "0x00000000", "0x00000001", "0x00000001", 
        "0x00000001", "0x000a00ab", "0x00000011", "0x00000001", 
        "0x00000001", "0x00000000", "0x80200018", "0x80300000", 
        "0x80001b71", "0x80100002", "0x80001b71", "0x80200018", 
        "0x80300000", "0x80100002", "0x00000000", "0x00000000", 
        "0x00000000", "0x00000000", "0x00000000", "0x00000002", 
        "0x00000000", "0x00000000", "0x00000003", "0x00000002", 
        "0x00000003", "0x00000002", "0x80800000", "0x00000000", 
        "0x00000000", "0x000306a0", "0x770c0000", "0x770c1414", 
        "0x0400013d", "0x08000021", "0x770c2990", "0x00000000", 
        "0x77ffd084", "0x01f1f50f", "0x07077404", "0x54000000", 
        "0x080001e8", "0x00000000", "0x00090303", "0x00090303", 
        "0x00000800", "0x00000014", "0xc0000079", "0x00000003", 
        "0x00000004", "0x00000010", "0x0000000b", "0x0000000a", 
        "0x00000001", "0x00000003", "0x0000000b", "0x00000002", 
        "0x00000002", "0x00000004", "0x00000008", "0x08040202", 
        "0x00130b10", "0x702a1f11", "0x78000000", "0x001f0000", 
        "0x00000080", "0xff00ff00", "0x00000000"
      ]
  },
  {
      "MemoryType": "ddr3",
      "Timings": [
        "0x00000008", "0x00000000", "0x0000000c", "0x000002ee", 
        "0x00000000", "0x0000012c", "0x00000002", "0x00000000", 
        "0x00000000", "0x001fffff", "0xa0f10000", "0x00000064", 
        "0x00000080", "0x00000001", "0x00000000", "0x00000000", 
        "0x00000011", "0x0000006f", "0x0000000c", "0x00000004", 
        "0x00000003", "0x00000008", "0x00000002", "0x0000000a", 
        "0x00000004", "0x00000004", "0x00000002", "0x00000001", 
        "0x00000000", "0x00000004", "0x00000006", "0x00000004", 
        "0x0000000a", "0x0000000c", "0x00000000", "0x00000000", 
        "0x00000b2d", "0x00000000", "0x000002cb", "0x00000001", 
        "0x00000008", "0x00000001", "0x00000000", "0x00000007", 
        "0x0000000f", "0x00000075", "0x00000200", "0x00000004", 
        "0x0000000c", "0x00000000", "0x00000004", "0x00000005", 
        "0x00000b6d", "0x00000000", "0x00007088", "0x00000004", 
        "0xe8000000", "0xff00ff89", "0x80000521", "0x80100002", 
        "0x00000000", "0x00000000", "0x00000000", "0x00000000", 
        "0x00000000", "0x00000000", "0x00000000", "0x00000000", 
        "0x00000000", "0x00000000", "0x00000000", "0x00000000", 
        "0x0150000c", "0x23c00000", "0x000c0099", "0x01000400", 
        "0x10004408", "0x06000404", "0x8000174b", "0x00000001", 
        "0x00200084", "0x00008000", "0x00000002", "0x0004032c", 
        "0x00028000", "0x00028000", "0x00028000", "0x00028000", 
        "0x00028000", "0x00028000", "0x00028000", "0x00028000", 
        "0x00000000", "0x00000000", "0x00000000", "0x00000000", 
        "0x00000000", "0x00000000", "0x00000000", "0x00000000", 
        "0x00000000", "0x00000000", "0x00000000", "0x00000000", 
        "0x00000000", "0x00000000", "0x00000000", "0x00000000", 
        "0x00044000", "0x00044000", "0x00044000", "0x00044000", 
        "0x00000002", "0x00000802", "0x00000000", "0x00000000", 
        "0x00020000", "0x00000040", "0x80000000", "0x00000000", 
        "0x80000011", "0x00000000", "0x00000002", "0x00000001", 
        "0x00000001", "0x000a00ab", "0x00000011", "0x00000001", 
        "0x00000001", "0x00000000", "0x80200000", "0x80300000", 
        "0x80000521", "0x80100002", "0x80000521", "0x80200000", 
        "0x80300000", "0x80100002", "0x00000000", "0x00000000", 
        "0x00000000", "0x00000000", "0x00000000", "0x00000002", 
        "0x00000000", "0x00000000", "0x00000003", "0x00000002", 
        "0x00000003", "0x00000002", "0x80800000", "0x00000000", 
        "0x00000000", "0x000002a0", "0x770c0000", "0x770c1414", 
        "0x0800013d", "0x08000021", "0x770c2990", "0x00000000", 
        "0x77fff884", "0x01f1f508", "0x05057404", "0x54000007", 
        "0x080001e8", "0x00000000", "0x00090303", "0x00090303", 
        "0x00000800", "0x0000000b", "0xc0000044", "0x00000001", 
        "0x00000002", "0x00000009", "0x00000005", "0x00000005", 
        "0x00000001", "0x00000002", "0x00000008", "0x00000002", 
        "0x00000002", "0x00000003", "0x00000006", "0x06030202", 
        "0x000d0709", "0x7086110a", "0x78000000", "0x001f0000", 
        "0x00000080", "0xff00ff00", "0x00000000"
      ]
  },
  {
      "MemoryType": "ddr3",
      "Timings": [
        "0x00000008", "0x00000000", "0x0000000c", "0x000002ee", 
        "0x00000000", "0x0000012c", "0x00000002", "0x00000000", 
        "0x00000000", "0x001fffff", "0xa0f10000", "0x00000064", 
        "0x00000080", "0x00000001", "0x00000000", "0x00000000", 
        "0x00000011", "0x0000006f", "0x0000000c", "0x00000004", 
        "0x00000003", "0x00000008", "0x00000002", "0x0000000a", 
        "0x00000004", "0x00000004", "0x00000002", "0x00000001", 
        "0x00000000", "0x00000004", "0x00000006", "0x00000004", 
        "0x0000000a", "0x0000000c", "0x00000000", "0x00000000", 
        "0x00000b2d", "0x00000000", "0x000002cb", "0x00000001", 
        "0x00000008", "0x00000001", "0x00000000", "0x00000007", 
        "0x0000000f", "0x00000075", "0x00000200", "0x00000004", 
        "0x0000000c", "0x00000000", "0x00000004", "0x00000005", 
        "0x00000b6d", "0x00000000", "0x00007088", "0x00000004", 
        "0xe8000000", "0xff00ff89", "0x80000521", "0x80100002", 
        "0x00000000", "0x00000000", "0x00000000", "0x00000000", 
        "0x00000000", "0x00000000", "0x00000000", "0x00000000", 
        "0x00000000", "0x00000000", "0x00000000", "0x00000000", 
        "0x0150000c", "0x23c00000", "0x000c0099", "0x01000400", 
        "0x10004408", "0x06000404", "0x8000174b", "0x00000001", 
        "0x00200084", "0x00008000", "0x00000002", "0x0004032c", 
        "0x00040000", "0x00040000", "0x00040000", "0x00040000", 
        "0x00040000", "0x00040000", "0x00040000", "0x00040000", 
        "0x00000000", "0x00000000", "0x00000000", "0x00000000", 
        "0x00000000", "0x00000000", "0x00000000", "0x00000000", 
        "0x00000000", "0x00000000", "0x00000000", "0x00000000", 
        "0x00000000", "0x00000000", "0x00000000", "0x00000000", 
        "0x00050000", "0x00050000", "0x00050000", "0x00050000", 
        "0x00000002", "0x00000802", "0x00000000", "0x00000000", 
        "0x00020000", "0x00000040", "0x80000000", "0x00000000", 
        "0x80000011", "0x00000000", "0x00000002", "0x00000001", 
        "0x00000001", "0x000a00ab", "0x00000011", "0x00000001", 
        "0x00000001", "0x00000000", "0x80200000", "0x80300000", 
        "0x80000521", "0x80100002", "0x80000521", "0x80200000", 
        "0x80300000", "0x80100002", "0x00000000", "0x00000000", 
        "0x00000000", "0x00000000", "0x00000000", "0x00000002", 
        "0x00000000", "0x00000000", "0x00000003", "0x00000002", 
        "0x00000003", "0x00000002", "0x80800000", "0x00000000", 
        "0x00000000", "0x000002a0", "0x770c0000", "0x770c1414", 
        "0x0800013d", "0x08000021", "0x770c2990", "0x00000000", 
        "0x77fff884", "0x01f1f508", "0x05057404", "0x54000007", 
        "0x080001e8", "0x00000000", "0x00090303", "0x00090303", 
        "0x00000800", "0x0000000b", "0xc0000044", "0x00000001", 
        "0x00000002", "0x00000009", "0x00000005", "0x00000005", 
        "0x00000001", "0x00000002", "0x00000008", "0x00000002", 
        "0x00000002", "0x00000003", "0x00000006", "0x06030202", 
        "0x000d0709", "0x7086110a", "0x78000000", "0x001f0000", 
        "0x00000080", "0xff00ff00", "0x00000000"
      ]
  }
  ]
}
